…
```
## The following objects are masked from 'package:base':
## 
##     intersect, setdiff, setequal, union
```

```r
tbl_df(dataset)
```

```
## # A tibble: 17,568 x 3
##    steps date       interval
##    <int> <fct>         <int>
##  1    NA 2012-10-01        0
##  2    NA 2012-10-01        5
##  3    NA 2012-10-01       10
##  4    NA 2012-10-01       15
##  5    NA 2012-10-01       20
##  6    NA 2012-10-01       25
##  7    NA 2012-10-01       30
##  8    NA 2012-10-01       35
##  9    NA 2012-10-01       40
## 10    NA 2012-10-01       45
## # ... with 17,558 more rows
```
…
```
## [1] 2304
```

I will use the mean of the interval across all days to impute missing values to conduct the next steps of the analysis. In order to do so, I have to match the mean of the respective interval across all days to the interval of the missing value. This means I will have to merge the interval averages from the previous steps to the interval in the original dataset for those observations that are missing. This is done in the following lines of code:


```r
new_dataset <- as.data.frame(merge(dataset, intervals, by.x = "interval", by.y = "interval", all.x = T, all.y = F))
tbl_df(new_dataset)
```

```
## # A tibble: 17,568 x 4
##    interval steps.x date       steps.y
##       <int>   <int> <date>       <int>
##  1        0      NA 2012-10-01      91
##  2        0       0 2012-11-23      91
##  3        0       0 2012-10-28      91
##  4        0       0 2012-11-06      91
##  5        0       0 2012-11-24      91
##  6        0       0 2012-11-15      91
##  7        0       0 2012-10-20      91
##  8        0       0 2012-11-16      91
##  9        0       0 2012-11-07      91
## 10        0       0 2012-11-25      91
## # ... with 17,558 more rows
```
…
